Geometry file
Geometry file
node id assign
element id assign
coordinates
       2
 0.00000e+00 0.00000e+00 0.00000e+00
 1.00000e+00 0.00000e+00 0.00000e+00
part 	1
MeshLabel_1
point
       1
       1
part       2
MeshLabel_2
point
       1
       2
part       3
MeshLabel_3
bar2
       1
       1       2
