grid solution 
0.000000e+00 0.000000e+00 
5.000000e-01 9.859195e-03 
1.000000e+00 3.132209e-02 
1.500000e+00 8.486869e-02 
2.000000e+00 2.099066e-01 
2.500000e+00 4.726182e-01 
3.000000e+00 9.597319e-01 
3.500000e+00 1.740833e+00 
4.000000e+00 2.795569e+00 
4.500000e+00 3.944462e+00 
5.000000e+00 4.861505e+00 
5.500000e+00 5.214526e+00 
6.000000e+00 4.861503e+00 
6.500000e+00 3.944455e+00 
7.000000e+00 2.795546e+00 
7.500000e+00 1.740745e+00 
8.000000e+00 9.594165e-01 
8.500000e+00 4.715368e-01 
9.000000e+00 2.063805e-01 
9.500000e+00 7.401039e-02 
1.000000e+01 0.000000e+00 
